cara membuat net core

1. membuat folder manual di D: atau C: atau dimanapun
2. dotnet --version
3. dotnet new console
4. program.cs koding disana
5. req assets press yes

OR

1. open visual studio
2. create/select a new project
3. select ASP Net Core Web Applications
4. klik kanan pada nama project pilih manage NuGet Package
5. 



-------------------------------------------------------------------------------------------------------------------------------------------------------------------

media query digunakan untuk ukuran layar
jangan lupa rubah assets
set dalam column main axis alligmnent vertical/horizontal
cross Axis Aligment 
jika ingin animasi loading atau lib lib seperti giv cari di pub.dev
cari google fonts
cari di pub.dev install
copy versionnya
pub get klik

klik kanan, generate, constractor pada animal.cart

pakai kurung kurawal

kalau di vscode pake ctrl . di Namepage

.............................................................................................................................................................................................................

Lottie.network(''),
          Text(
            'Empty List.toUpperCase(),'
            style: GoogleFonts.mcLaren(
              Color(Colors.deepPurpleAccent,
              FontSize: 36,
              FontWeight: FontWeight.bold),


